%YAML 1.1
%TAG !u! tag:unity3d.com,2011:
--- !u!74 &7400000
AnimationClip:
  m_ObjectHideFlags: 0
  m_PrefabParentObject: {fileID: 0}
  m_PrefabInternal: {fileID: 0}
  m_Name: Death Skull Loop
  serializedVersion: 6
  m_Legacy: 0
  m_Compressed: 0
  m_UseHighQualityCurve: 1
  m_RotationCurves: []
  m_CompressedRotationCurves: []
  m_EulerCurves:
  - curve:
      serializedVersion: 2
      m_Curve:
      - time: 0
        value: {x: -90, y: 0, z: 0}
        inSlope: {x: 7.5, y: 0, z: 0}
        outSlope: {x: 7.5, y: 0, z: 0}
        tangentMode: 0
      - time: 2
        value: {x: -75, y: 0, z: 0}
        inSlope: {x: -3.1944447, y: -11.266989, z: 0}
        outSlope: {x: -3.1944447, y: -11.266989, z: 0}
        tangentMode: 0
      - time: 3.8
        value: {x: -100, y: -40.561157, z: 0}
        inSlope: {x: 1.6621122, y: 4.8546047, z: 0}
        outSlope: {x: 1.6621122, y: 4.8546047, z: 0}
        tangentMode: 0
      - time: 5.8333335
        value: {x: -65, y: 25, z: 0}
        inSlope: {x: 8.606557, y: 16.121593, z: 0}
        outSlope: {x: 8.606557, y: 16.121593, z: 0}
        tangentMode: 0
      - time: 5.9333334
        value: {x: -65, y: 25, z: 0}
        inSlope: {x: -13.298968, y: -1.5773196, z: 0}
        outSlope: {x: -13.298968, y: -1.5773196, z: 0}
        tangentMode: 0
      - time: 7.55
        value: {x: -108, y: 19.9, z: 0}
        inSlope: {x: -42.548996, y: -1.5773196, z: 0}
        outSlope: {x: -42.548996, y: -1.5773196, z: 0}
        tangentMode: 0
      - time: 7.883333
        value: {x: -127.5, y: 19.9, z: 0}
        inSlope: {x: 39.74984, y: 0, z: 0}
        outSlope: {x: 39.74984, y: 0, z: 0}
        tangentMode: 0
      - time: 8.05
        value: {x: -104.5, y: 19.9, z: 0}
        inSlope: {x: 17.099686, y: 0, z: 0}
        outSlope: {x: 17.099686, y: 0, z: 0}
        tangentMode: 0
      - time: 8.216666
        value: {x: -121.799995, y: 19.9, z: 0}
        inSlope: {x: 21.599678, y: 0, z: 0}
        outSlope: {x: 21.599678, y: 0, z: 0}
        tangentMode: 0
      - time: 8.383333
        value: {x: -97.299995, y: 19.9, z: 0}
        inSlope: {x: 37.833317, y: 0, z: 0}
        outSlope: {x: 37.833317, y: 0, z: 0}
        tangentMode: 0
      - time: 8.533334
        value: {x: -108, y: 19.9, z: 0}
        inSlope: {x: -35.666546, y: 0, z: 0}
        outSlope: {x: -35.666546, y: 0, z: 0}
        tangentMode: 0
      - time: 8.75
        value: {x: -108, y: 19.9, z: 0}
        inSlope: {x: 16.568583, y: -25.885729, z: 0}
        outSlope: {x: 16.568583, y: -25.885729, z: 0}
        tangentMode: 0
      - time: 9.333333
        value: {x: -88.67, y: -10.3, z: 0}
        inSlope: {x: 15.35949, y: -16.522095, z: 0}
        outSlope: {x: 15.35949, y: -16.522095, z: 0}
        tangentMode: 0
      - time: 9.883333
        value: {x: -90, y: 0, z: 0}
        inSlope: {x: -1.2090921, y: 9.363633, z: 0}
        outSlope: {x: -1.2090921, y: 9.363633, z: 0}
        tangentMode: 0
      - time: 10.383333
        value: {x: -90, y: 0, z: 0}
        inSlope: {x: 0, y: 0, z: 0}
        outSlope: {x: 0, y: 0, z: 0}
        tangentMode: 0
      m_PreInfinity: 2
      m_PostInfinity: 2
      m_RotationOrder: 4
    path: 
  m_PositionCurves:
  - curve:
      serializedVersion: 2
      m_Curve:
      - time: 0
        value: {x: 0, y: 0.21, z: -0.432}
        inSlope: {x: 0, y: -0.20023888, z: -0.003973812}
        outSlope: {x: 0, y: -0.20023888, z: -0.003973812}
        tangentMode: 0
      - time: 2
        value: {x: 0, y: -0.19047777, z: -0.43994763}
        inSlope: {x: -0.48333335, y: 0.06251328, z: -0.0019754486}
        outSlope: {x: -0.48333335, y: 0.06251328, z: -0.0019754486}
        tangentMode: 0
      - time: 3.8
        value: {x: -1.74, y: 0.395, z: -0.4399064}
        inSlope: {x: 0.18551904, y: -0.03979762, z: 0.0021011692}
        outSlope: {x: 0.18551904, y: -0.03979762, z: 0.0021011692}
        tangentMode: 0
      - time: 5.8333335
        value: {x: 0.98, y: -0.42821676, z: -0.43140823}
        inSlope: {x: 0.6688524, y: -0.20243034, z: 0.0020897118}
        outSlope: {x: 0.6688524, y: -0.20243034, z: 0.0020897118}
        tangentMode: 0
      - time: 5.9333334
        value: {x: 0.98, y: -0.42821676, z: -0.43140823}
        inSlope: {x: -0.10824742, y: 0.35511854, z: -0.00018302619}
        outSlope: {x: -0.10824742, y: 0.35511854, z: -0.00018302619}
        tangentMode: 0
      - time: 7.55
        value: {x: 0.63, y: 0.72, z: -0.432}
        inSlope: {x: -0.10824742, y: 0.20511836, z: -0.00018302619}
        outSlope: {x: -0.10824742, y: 0.20511836, z: -0.00018302619}
        tangentMode: 0
      - time: 7.883333
        value: {x: 0.63, y: 0.62, z: -0.432}
        inSlope: {x: 0, y: -0.060000442, z: 0}
        outSlope: {x: 0, y: -0.060000442, z: 0}
        tangentMode: 0
      - time: 8.05
        value: {x: 0.63, y: 0.65, z: -0.432}
        inSlope: {x: 0, y: -0.030000597, z: 0}
        outSlope: {x: 0, y: -0.030000597, z: 0}
        tangentMode: 0
      - time: 8.216666
        value: {x: 0.63, y: 0.61, z: -0.432}
        inSlope: {x: 0, y: 0.089999236, z: 0}
        outSlope: {x: 0, y: 0.089999236, z: 0}
        tangentMode: 0
      - time: 8.383333
        value: {x: 0.63, y: 0.68, z: -0.432}
        inSlope: {x: 0, y: 0.34333247, z: 0}
        outSlope: {x: 0, y: 0.34333247, z: 0}
        tangentMode: 0
      - time: 8.533334
        value: {x: 0.63, y: 0.72, z: -0.432}
        inSlope: {x: 0, y: 0.1333329, z: 0}
        outSlope: {x: 0, y: 0.1333329, z: 0}
        tangentMode: 0
      - time: 8.75
        value: {x: 0.63, y: 0.72, z: -0.432}
        inSlope: {x: -0.7457147, y: -0.5828575, z: 0}
        outSlope: {x: -0.7457147, y: -0.5828575, z: 0}
        tangentMode: 0
      - time: 9.333333
        value: {x: -0.24, y: 0.04, z: -0.432}
        inSlope: {x: -0.527533, y: -0.42831212, z: 0}
        outSlope: {x: -0.527533, y: -0.42831212, z: 0}
        tangentMode: 0
      - time: 9.883333
        value: {x: 0, y: 0.21, z: -0.432}
        inSlope: {x: 0.21818174, y: 0.15454538, z: 0}
        outSlope: {x: 0.21818174, y: 0.15454538, z: 0}
        tangentMode: 0
      - time: 10.383333
        value: {x: 0, y: 0.21, z: -0.432}
        inSlope: {x: 0, y: 0, z: 0}
        outSlope: {x: 0, y: 0, z: 0}
        tangentMode: 0
      m_PreInfinity: 2
      m_PostInfinity: 2
      m_RotationOrder: 4
    path: 
  m_ScaleCurves: []
  m_FloatCurves: []
  m_PPtrCurves: []
  m_SampleRate: 60
  m_WrapMode: 0
  m_Bounds:
    m_Center: {x: 0, y: 0, z: 0}
    m_Extent: {x: 0, y: 0, z: 0}
  m_ClipBindingConstant:
    genericBindings:
    - path: 0
      attribute: 1
      script: {fileID: 0}
      classID: 4
      customType: 0
      isPPtrCurve: 0
    - path: 0
      attribute: 4
      script: {fileID: 0}
      classID: 4
      customType: 14
      isPPtrCurve: 0
    pptrCurveMapping: []
  m_AnimationClipSettings:
    serializedVersion: 2
    m_AdditiveReferencePoseClip: {fileID: 0}
    m_AdditiveReferencePoseTime: 0
    m_StartTime: 0
    m_StopTime: 10.383333
    m_OrientationOffsetY: 0
    m_Level: 0
    m_CycleOffset: 0
    m_HasAdditiveReferencePose: 0
    m_LoopTime: 1
    m_LoopBlend: 0
    m_LoopBlendOrientation: 0
    m_LoopBlendPositionY: 0
    m_LoopBlendPositionXZ: 0
    m_KeepOriginalOrientation: 0
    m_KeepOriginalPositionY: 1
    m_KeepOriginalPositionXZ: 0
    m_HeightFromFeet: 0
    m_Mirror: 0
  m_EditorCurves:
  - curve:
      serializedVersion: 2
      m_Curve:
      - time: 0
        value: -90
        inSlope: 7.5
        outSlope: 7.5
        tangentMode: 10
      - time: 2
        value: -75
        inSlope: -3.1944447
        outSlope: -3.1944447
        tangentMode: 10
      - time: 3.8
        value: -100
        inSlope: 1.6621122
        outSlope: 1.6621122
        tangentMode: 10
      - time: 5.8333335
        value: -65
        inSlope: 8.606557
        outSlope: 8.606557
        tangentMode: 10
      - time: 5.9333334
        value: -65
        inSlope: -13.298968
        outSlope: -13.298968
        tangentMode: 10
      - time: 7.55
        value: -108
        inSlope: -42.548996
        outSlope: -42.548996
        tangentMode: 10
      - time: 7.883333
        value: -127.5
        inSlope: 39.74984
        outSlope: 39.74984
        tangentMode: 10
      - time: 8.05
        value: -104.5
        inSlope: 17.099686
        outSlope: 17.099686
        tangentMode: 10
      - time: 8.216666
        value: -121.799995
        inSlope: 21.599678
        outSlope: 21.599678
        tangentMode: 10
      - time: 8.383333
        value: -97.299995
        inSlope: 37.833317
        outSlope: 37.833317
        tangentMode: 10
      - time: 8.533334
        value: -108
        inSlope: -35.666546
        outSlope: -35.666546
        tangentMode: 10
      - time: 8.75
        value: -108
        inSlope: 16.568583
        outSlope: 16.568583
        tangentMode: 10
      - time: 9.333333
        value: -88.67
        inSlope: 15.35949
        outSlope: 15.35949
        tangentMode: 10
      - time: 9.883333
        value: -90
        inSlope: -1.2090921
        outSlope: -1.2090921
        tangentMode: 10
      - time: 10.383333
        value: -90
        inSlope: 0
        outSlope: 0
        tangentMode: 10
      m_PreInfinity: 2
      m_PostInfinity: 2
      m_RotationOrder: 4
    attribute: localEulerAnglesRaw.x
    path: 
    classID: 4
    script: {fileID: 0}
  - curve:
      serializedVersion: 2
      m_Curve:
      - time: 0
        value: 0
        inSlope: 0
        outSlope: 0
        tangentMode: 10
      - time: 2
        value: 0
        inSlope: -11.266989
        outSlope: -11.266989
        tangentMode: 10
      - time: 3.8
        value: -40.561157
        inSlope: 4.8546047
        outSlope: 4.8546047
        tangentMode: 10
      - time: 5.8333335
        value: 25
        inSlope: 16.121593
        outSlope: 16.121593
        tangentMode: 10
      - time: 5.9333334
        value: 25
        inSlope: -1.5773196
        outSlope: -1.5773196
        tangentMode: 10
      - time: 7.55
        value: 19.9
        inSlope: -1.5773196
        outSlope: -1.5773196
        tangentMode: 10
      - time: 7.883333
        value: 19.9
        inSlope: 0
        outSlope: 0
        tangentMode: 10
      - time: 8.05
        value: 19.9
        inSlope: 0
        outSlope: 0
        tangentMode: 10
      - time: 8.216666
        value: 19.9
        inSlope: 0
        outSlope: 0
        tangentMode: 10
      - time: 8.383333
        value: 19.9
        inSlope: 0
        outSlope: 0
        tangentMode: 10
      - time: 8.533334
        value: 19.9
        inSlope: 0
        outSlope: 0
        tangentMode: 10
      - time: 8.75
        value: 19.9
        inSlope: -25.885729
        outSlope: -25.885729
        tangentMode: 10
      - time: 9.333333
        value: -10.3
        inSlope: -16.522095
        outSlope: -16.522095
        tangentMode: 10
      - time: 9.883333
        value: 0
        inSlope: 9.363633
        outSlope: 9.363633
        tangentMode: 10
      - time: 10.383333
        value: 0
        inSlope: 0
        outSlope: 0
        tangentMode: 10
      m_PreInfinity: 2
      m_PostInfinity: 2
      m_RotationOrder: 4
    attribute: localEulerAnglesRaw.y
    path: 
    classID: 4
    script: {fileID: 0}
  - curve:
      serializedVersion: 2
      m_Curve:
      - time: 0
        value: 0
        inSlope: 0
        outSlope: 0
        tangentMode: 10
      - time: 2
        value: 0
        inSlope: 0
        outSlope: 0
        tangentMode: 10
      - time: 3.8
        value: 0
        inSlope: 0
        outSlope: 0
        tangentMode: 10
      - time: 5.8333335
        value: 0
        inSlope: 0
        outSlope: 0
        tangentMode: 10
      - time: 5.9333334
        value: 0
        inSlope: 0
        outSlope: 0
        tangentMode: 10
      - time: 7.55
        value: 0
        inSlope: 0
        outSlope: 0
        tangentMode: 10
      - time: 7.883333
        value: 0
        inSlope: 0
        outSlope: 0
        tangentMode: 10
      - time: 8.05
        value: 0
        inSlope: 0
        outSlope: 0
        tangentMode: 10
      - time: 8.216666
        value: 0
        inSlope: 0
        outSlope: 0
        tangentMode: 10
      - time: 8.383333
        value: 0
        inSlope: 0
        outSlope: 0
        tangentMode: 10
      - time: 8.533334
        value: 0
        inSlope: 0
        outSlope: 0
        tangentMode: 10
      - time: 8.75
        value: 0
        inSlope: 0
        outSlope: 0
        tangentMode: 10
      - time: 9.333333
        value: 0
        inSlope: 0
        outSlope: 0
        tangentMode: 10
      - time: 9.883333
        value: 0
        inSlope: 0
        outSlope: 0
        tangentMode: 10
      - time: 10.383333
        value: 0
        inSlope: 0
        outSlope: 0
        tangentMode: 10
      m_PreInfinity: 2
      m_PostInfinity: 2
      m_RotationOrder: 4
    attribute: localEulerAnglesRaw.z
    path: 
    classID: 4
    script: {fileID: 0}
  - curve:
      serializedVersion: 2
      m_Curve:
      - time: 0
        value: 0
        inSlope: 0
        outSlope: 0
        tangentMode: 10
      - time: 2
        value: 0
        inSlope: -0.48333335
        outSlope: -0.48333335
        tangentMode: 10
      - time: 3.8
        value: -1.74
        inSlope: 0.18551904
        outSlope: 0.18551904
        tangentMode: 10
      - time: 5.8333335
        value: 0.98
        inSlope: 0.6688524
        outSlope: 0.6688524
        tangentMode: 10
      - time: 5.9333334
        value: 0.98
        inSlope: -0.10824742
        outSlope: -0.10824742
        tangentMode: 10
      - time: 7.55
        value: 0.63
        inSlope: -0.10824742
        outSlope: -0.10824742
        tangentMode: 10
      - time: 7.883333
        value: 0.63
        inSlope: 0
        outSlope: 0
        tangentMode: 10
      - time: 8.05
        value: 0.63
        inSlope: 0
        outSlope: 0
        tangentMode: 10
      - time: 8.216666
        value: 0.63
        inSlope: 0
        outSlope: 0
        tangentMode: 10
      - time: 8.383333
        value: 0.63
        inSlope: 0
        outSlope: 0
        tangentMode: 10
      - time: 8.533334
        value: 0.63
        inSlope: 0
        outSlope: 0
        tangentMode: 10
      - time: 8.75
        value: 0.63
        inSlope: -0.7457147
        outSlope: -0.7457147
        tangentMode: 10
      - time: 9.333333
        value: -0.24
        inSlope: -0.527533
        outSlope: -0.527533
        tangentMode: 10
      - time: 9.883333
        value: 0
        inSlope: 0.21818174
        outSlope: 0.21818174
        tangentMode: 10
      - time: 10.383333
        value: 0
        inSlope: 0
        outSlope: 0
        tangentMode: 10
      m_PreInfinity: 2
      m_PostInfinity: 2
      m_RotationOrder: 4
    attribute: m_LocalPosition.x
    path: 
    classID: 4
    script: {fileID: 0}
  - curve:
      serializedVersion: 2
      m_Curve:
      - time: 0
        value: 0.21
        inSlope: -0.20023888
        outSlope: -0.20023888
        tangentMode: 10
      - time: 2
        value: -0.19047777
        inSlope: 0.06251328
        outSlope: 0.06251328
        tangentMode: 10
      - time: 3.8
        value: 0.395
        inSlope: -0.03979762
        outSlope: -0.03979762
        tangentMode: 10
      - time: 5.8333335
        value: -0.42821676
        inSlope: -0.20243034
        outSlope: -0.20243034
        tangentMode: 10
      - time: 5.9333334
        value: -0.42821676
        inSlope: 0.35511854
        outSlope: 0.35511854
        tangentMode: 10
      - time: 7.55
        value: 0.72
        inSlope: 0.20511836
        outSlope: 0.20511836
        tangentMode: 10
      - time: 7.883333
        value: 0.62
        inSlope: -0.060000442
        outSlope: -0.060000442
        tangentMode: 10
      - time: 8.05
        value: 0.65
        inSlope: -0.030000597
        outSlope: -0.030000597
        tangentMode: 10
      - time: 8.216666
        value: 0.61
        inSlope: 0.089999236
        outSlope: 0.089999236
        tangentMode: 10
      - time: 8.383333
        value: 0.68
        inSlope: 0.34333247
        outSlope: 0.34333247
        tangentMode: 10
      - time: 8.533334
        value: 0.72
        inSlope: 0.1333329
        outSlope: 0.1333329
        tangentMode: 10
      - time: 8.75
        value: 0.72
        inSlope: -0.5828575
        outSlope: -0.5828575
        tangentMode: 10
      - time: 9.333333
        value: 0.04
        inSlope: -0.42831212
        outSlope: -0.42831212
        tangentMode: 10
      - time: 9.883333
        value: 0.21
        inSlope: 0.15454538
        outSlope: 0.15454538
        tangentMode: 10
      - time: 10.383333
        value: 0.21
        inSlope: 0
        outSlope: 0
        tangentMode: 10
      m_PreInfinity: 2
      m_PostInfinity: 2
      m_RotationOrder: 4
    attribute: m_LocalPosition.y
    path: 
    classID: 4
    script: {fileID: 0}
  - curve:
      serializedVersion: 2
      m_Curve:
      - time: 0
        value: -0.432
        inSlope: -0.003973812
        outSlope: -0.003973812
        tangentMode: 10
      - time: 2
        value: -0.43994763
        inSlope: -0.0019754486
        outSlope: -0.0019754486
        tangentMode: 10
      - time: 3.8
        value: -0.4399064
        inSlope: 0.0021011692
        outSlope: 0.0021011692
        tangentMode: 10
      - time: 5.8333335
        value: -0.43140823
        inSlope: 0.0020897118
        outSlope: 0.0020897118
        tangentMode: 10
      - time: 5.9333334
        value: -0.43140823
        inSlope: -0.00018302619
        outSlope: -0.00018302619
        tangentMode: 10
      - time: 7.55
        value: -0.432
        inSlope: -0.00018302619
        outSlope: -0.00018302619
        tangentMode: 10
      - time: 7.883333
        value: -0.432
        inSlope: 0
        outSlope: 0
        tangentMode: 10
      - time: 8.05
        value: -0.432
        inSlope: 0
        outSlope: 0
        tangentMode: 10
      - time: 8.216666
        value: -0.432
        inSlope: 0
        outSlope: 0
        tangentMode: 10
      - time: 8.383333
        value: -0.432
        inSlope: 0
        outSlope: 0
        tangentMode: 10
      - time: 8.533334
        value: -0.432
        inSlope: 0
        outSlope: 0
        tangentMode: 10
      - time: 8.75
        value: -0.432
        inSlope: 0
        outSlope: 0
        tangentMode: 10
      - time: 9.333333
        value: -0.432
        inSlope: 0
        outSlope: 0
        tangentMode: 10
      - time: 9.883333
        value: -0.432
        inSlope: 0
        outSlope: 0
        tangentMode: 10
      - time: 10.383333
        value: -0.432
        inSlope: 0
        outSlope: 0
        tangentMode: 10
      m_PreInfinity: 2
      m_PostInfinity: 2
      m_RotationOrder: 4
    attribute: m_LocalPosition.z
    path: 
    classID: 4
    script: {fileID: 0}
  m_EulerEditorCurves:
  - curve:
      serializedVersion: 2
      m_Curve: []
      m_PreInfinity: 2
      m_PostInfinity: 2
      m_RotationOrder: 4
    attribute: m_LocalEulerAngles.x
    path: 
    classID: 4
    script: {fileID: 0}
  - curve:
      serializedVersion: 2
      m_Curve: []
      m_PreInfinity: 2
      m_PostInfinity: 2
      m_RotationOrder: 4
    attribute: m_LocalEulerAngles.y
    path: 
    classID: 4
    script: {fileID: 0}
  - curve:
      serializedVersion: 2
      m_Curve: []
      m_PreInfinity: 2
      m_PostInfinity: 2
      m_RotationOrder: 4
    attribute: m_LocalEulerAngles.z
    path: 
    classID: 4
    script: {fileID: 0}
  m_HasGenericRootTransform: 1
  m_HasMotionFloatCurves: 0
  m_GenerateMotionCurves: 0
  m_Events: []
