%YAML 1.1
%TAG !u! tag:unity3d.com,2011:
--- !u!1 &197216
GameObject:
  m_ObjectHideFlags: 0
  m_PrefabParentObject: {fileID: 0}
  m_PrefabInternal: {fileID: 100100000}
  serializedVersion: 4
  m_Component:
  - 4: {fileID: 409194}
  - 114: {fileID: 11471126}
  m_Layer: 0
  m_Name: Boss
  m_TagString: Untagged
  m_Icon: {fileID: 0}
  m_NavMeshLayer: 0
  m_StaticEditorFlags: 0
  m_IsActive: 1
--- !u!4 &409194
Transform:
  m_ObjectHideFlags: 1
  m_PrefabParentObject: {fileID: 0}
  m_PrefabInternal: {fileID: 100100000}
  m_GameObject: {fileID: 197216}
  m_LocalRotation: {x: 0, y: 0, z: 0, w: 1}
  m_LocalPosition: {x: 0, y: 0, z: 0}
  m_LocalScale: {x: 1, y: 1, z: 1}
  m_Children: []
  m_Father: {fileID: 0}
  m_RootOrder: 0
--- !u!114 &11471126
MonoBehaviour:
  m_ObjectHideFlags: 1
  m_PrefabParentObject: {fileID: 0}
  m_PrefabInternal: {fileID: 100100000}
  m_GameObject: {fileID: 197216}
  m_Enabled: 1
  m_EditorHideFlags: 0
  m_Script: {fileID: 11500000, guid: 5ac7171786e8933419a8d3f2eed2da09, type: 3}
  m_Name: 
  m_EditorClassIdentifier: 
  useHealthTimeState: 0
  health: 100
  damageToStateChange: Infinity
  timeToStateChange: 23
  player: {fileID: 0}
  changeDuration: 3
  hand: {fileID: 0}
  guy: {fileID: 0}
  trap: {fileID: 0}
  snake: {fileID: 0}
  cube: {fileID: 0}
  bomb: {fileID: 0}
  hpBar: {fileID: 0}
  curve:
    serializedVersion: 2
    m_Curve:
    - time: 0.2
      value: 0
      inSlope: 0
      outSlope: 0
      tangentMode: 0
    - time: 0.8
      value: 1
      inSlope: 0
      outSlope: 0
      tangentMode: 0
    m_PreInfinity: 2
    m_PostInfinity: 2
    m_RotationOrder: 0
  gameOver: 0
--- !u!1001 &100100000
Prefab:
  m_ObjectHideFlags: 1
  serializedVersion: 2
  m_Modification:
    m_TransformParent: {fileID: 0}
    m_Modifications: []
    m_RemovedComponents: []
  m_ParentPrefab: {fileID: 0}
  m_RootGameObject: {fileID: 197216}
  m_IsPrefabParent: 1
